..................
----------------------------------------------------------------------
Ran 18 tests in 0.114s

OK
Name             Stmts   Miss Branch BrPart  Cover   Missing
------------------------------------------------------------
Collatz.py          53      1     22      2    96%   56, 55->56, 59->62
TestCollatz.py      78      0      0      0   100%
------------------------------------------------------------
TOTAL              131      1     22      2    98%
