1 10 20
100 200 125
201 210 89
900 1000 174
1 1999 182
1 100000 351
10 1 20
871 6171 262
100000 1 351
1000000 1001000 427
214050 639390 509
810772 402872 509
920632 613127 525
937573 557690 525
291801 153251 443
220131 722402 509
573275 688738 509
739792 333435 509
1407 727151 509
414242 40481 449
704449 372619 509
801521 921545 525
831173 676134 504
184897 514025 470
742955 814798 468
481313 101813 449
482809 594272 470
795372 970856 525
642201 562334 509
452747 517708 470
380088 125788 443
97296 688998 509
497997 705738 509
33707 28411 285
891721 133653 525
882194 594252 525
291770 678391 509
581188 160311 470
499080 183539 449
414710 914188 525
448734 555472 470
87404 660401 509
509803 826997 509
293494 758834 509
338438 29161 443
381172 940517 525
99738 515553 470
534739 27373 470
678948 466981 509
571547 444285 470
407526 391587 405
941974 367768 525
464400 826829 509
839701 653043 525
392110 350560 436
180209 760229 509
668334 142519 509
992348 51172 525
745893 685347 504
71654 4637 340
315372 851636 525
150751 141967 375
320323 491995 449
368199 439150 449
532757 186401 470
231856 975322 525
968922 272757 525
573955 967095 525
915152 835353 525
488081 985438 525
58895 953315 525
206699 421445 449
223344 77778 386
635944 996661 525
121854 460726 449
930713 519507 525
974789 422963 525
563480 641709 509
962915 346086 525
933046 243691 525
658216 552084 509
372969 949792 525
891581 742634 525
623214 901201 525
676250 463107 509
4947 656321 509
603085 456474 470
38812 46865 314
614775 77211 470
295741 328473 384
99723 22042 351
632664 787129 504
596242 158482 470
423175 448007 418
415231 683560 509
989655 199649 525
471172 381268 449
739867 627629 504
545994 733160 509
268513 792211 509
131311 400465 443
903559 425579 525
806993 712962 468
755202 384196 509
784926 296616 509
281498 680721 509
641143 5516 509
440438 66105 449
296061 891351 525
775502 626098 509
